waveforms/conditioned.CSV

Model,MSO2014
Firmware Version,1.56

Point Format,Y,
Horizontal Units,S,
Horizontal Scale,0.002,
Sample Interval,1.6e-07,
Filter Frequency,550000,
Record Length,125000,
Gating,0.0% to 100.0%,
Probe Attenuation,10,
Vertical Units,V,
Vertical Offset,0,
Vertical Scale,1,
Label,,
TIME,CH1,CH1 Peak Detect
-1.0000e-02,0.4,8.04
-9.9998e-03,0.28,-2.12
-9.9997e-03,0.2,5.84
-9.9995e-03,0.16,-1
-9.9994e-03,0.16,1.24
-9.9992e-03,0.16,3.8147e-08
-9.9990e-03,0.16,0.36
-9.9989e-03,0.16,0.08
-9.9987e-03,0.2,0.24
-9.9986e-03,0.2,0.16
-9.9984e-03,0.2,0.24
-9.9982e-03,0.2,0.16
-9.9981e-03,0.16,0.2
-9.9979e-03,0.2,0.16
-9.9978e-03,0.2,0.24
-9.9976e-03,0.2,0.16
-9.9974e-03,0.2,0.24
-9.9973e-03,0.2,0.16
-9.9971e-03,0.2,0.24
-9.9970e-03,0.2,0.16
-9.9968e-03,0.2,0.2
-9.9966e-03,0.2,0.16
-9.9965e-03,0.2,0.24
-9.9963e-03,0.2,0.16
-9.9962e-03,0.2,0.24
-9.9960e-03,0.2,0.16
-9.9958e-03,0.2,0.24
-9.9957e-03,0.2,0.16
-9.9955e-03,0.2,0.24
-9.9954e-03,0.2,0.16
-9.9952e-03,0.2,0.2
-9.9950e-03,0.2,0.16
-9.9949e-03,0.2,0.24
-9.9947e-03,0.2,0.16
-9.9946e-03,0.2,0.24
-9.9944e-03,0.2,0.16
-9.9942e-03,0.2,0.24
-9.9941e-03,0.2,0.16
-9.9939e-03,0.2,0.24
-9.9938e-03,0.2,0.16
-9.9936e-03,0.2,0.24
-9.9934e-03,0.2,0.16
-9.9933e-03,0.2,0.24
-9.9931e-03,0.2,0.16
-9.9930e-03,0.2,0.24
-9.9928e-03,0.2,0.16
-9.9926e-03,0.2,0.24
-9.9925e-03,0.2,0.16
-9.9923e-03,0.2,0.24
-9.9922e-03,0.2,0.16
-9.9920e-03,0.2,0.24
-9.9918e-03,0.2,0.16
-9.9917e-03,0.2,0.24
-9.9915e-03,0.2,0.16
-9.9914e-03,0.2,0.24
-9.9912e-03,0.2,0.16
-9.9910e-03,0.2,0.24
-9.9909e-03,0.2,0.16
-9.9907e-03,0.2,0.24
-9.9906e-03,0.2,0.16
-9.9904e-03,0.2,0.24
-9.9902e-03,0.2,0.16
-9.9901e-03,0.2,0.24
-9.9899e-03,0.2,0.2
-9.9898e-03,0.2,0.24
-9.9896e-03,0.2,0.16
-9.9894e-03,0.2,0.24
-9.9893e-03,0.2,0.16
-9.9891e-03,0.2,0.24
-9.9890e-03,0.2,0.16
-9.9888e-03,0.2,0.24
-9.9886e-03,0.24,0.16
-9.9885e-03,0.32,0.24
-9.9883e-03,0.6,0.16
-9.9882e-03,1.04,0.24
-9.9880e-03,1.68,0.2
-9.9878e-03,2.32,1.28
-9.9877e-03,2.88,1.28
-9.9875e-03,3.32,2.96
-9.9874e-03,3.72,2.96
-9.9872e-03,4.08,3.52
-9.9870e-03,4.44,3.48
-9.9869e-03,4.72,4.32
-9.9867e-03,4.88,4.32
-9.9866e-03,4.96,5.04
-9.9864e-03,5,4.96
-9.9862e-03,5,5.04
-9.9861e-03,5,5
-9.9859e-03,5,5.04
-9.9858e-03,5.04,5
-9.9856e-03,5.04,5.04
-9.9854e-03,5.04,5
-9.9853e-03,5.04,5.04
-9.9851e-03,5.04,5
-9.9850e-03,5.04,5.08
-9.9848e-03,5.04,5
-9.9846e-03,5.04,5.08
-9.9845e-03,5.04,5
-9.9843e-03,5.04,5.08
-9.9842e-03,5.04,5
-9.9840e-03,5.04,5.08
-9.9838e-03,5.04,5.04
-9.9837e-03,5.08,5.08
-9.9835e-03,5.08,5.04
-9.9834e-03,5.08,5.08
-9.9832e-03,5.08,5.04
-9.9830e-03,5.08,5.12
-9.9829e-03,5.08,5.04
-9.9827e-03,5.08,5.12
-9.9826e-03,5.08,5.04
-9.9824e-03,5.08,5.08
-9.9822e-03,5.08,5.04
-9.9821e-03,5.08,5.12
-9.9819e-03,5.08,5.04
-9.9818e-03,5.08,5.12
-9.9816e-03,5.08,5.04
-9.9814e-03,5.08,5.12
-9.9813e-03,5.08,5.04
-9.9811e-03,5.08,5.12
-9.9810e-03,5.08,5.04
-9.9808e-03,5.08,5.12
-9.9806e-03,5.08,5.04
-9.9805e-03,5.08,5.12
-9.9803e-03,5.08,5.04
-9.9802e-03,5.08,5.12
-9.9800e-03,5.08,5.04
-9.9798e-03,5.08,5.12
-9.9797e-03,5.08,5.08
-9.9795e-03,5.08,5.12
-9.9794e-03,5.08,5.08
-9.9792e-03,5.08,5.12
-9.9790e-03,5.08,5.08
-9.9789e-03,5.08,5.12
-9.9787e-03,5.08,5.08
-9.9786e-03,5.08,5.12
-9.9784e-03,5.08,5.08
-9.9782e-03,5.08,5.12
-9.9781e-03,5.08,5.04
-9.9779e-03,5.08,5.12
-9.9778e-03,5.08,5.08
-9.9776e-03,5.08,5.12
-9.9774e-03,5.08,5.04
-9.9773e-03,5.08,5.12
-9.9771e-03,5.08,5.08
-9.9770e-03,5.08,5.12
-9.9768e-03,5.08,5.08
-9.9766e-03,5.08,5.12
-9.9765e-03,5.08,5.08
-9.9763e-03,5.08,5.12
-9.9762e-03,5.08,5.08
-9.9760e-03,5.08,5.12
-9.9758e-03,5.08,5.04
-9.9757e-03,5.08,5.12
-9.9755e-03,5.08,5.08
-9.9754e-03,5.12,5.12
-9.9752e-03,5.12,5.08
-9.9750e-03,5.12,5.12
-9.9749e-03,5.12,5.08
-9.9747e-03,5.12,5.16
-9.9746e-03,5.12,5.08
-9.9744e-03,5.12,5.16
-9.9742e-03,5.08,5.08
-9.9741e-03,5.08,5.12
-9.9739e-03,5.08,5.08
-9.9738e-03,5.08,5.12
-9.9736e-03,5.08,5.08
-9.9734e-03,5.08,5.12
-9.9733e-03,5.08,5.08
-9.9731e-03,5.08,5.12
-9.9730e-03,5.08,5.08
-9.9728e-03,5.08,5.12
-9.9726e-03,5.08,5.08
-9.9725e-03,5.08,5.12
-9.9723e-03,5.08,5.08
-9.9722e-03,5.08,5.12
-9.9720e-03,5.08,5.04
-9.9718e-03,5.08,5.12
-9.9717e-03,5.08,5.08
-9.9715e-03,5.08,5.12
-9.9714e-03,5.08,5.08
-9.9712e-03,5.08,5.12
-9.9710e-03,5.08,5.04
-9.9709e-03,5.08,5.12
-9.9707e-03,5.08,5.08
-9.9706e-03,5.08,5.12
-9.9704e-03,5.08,5.04
-9.9702e-03,5.08,5.12
-9.9701e-03,5.08,5.04
-9.9699e-03,5.08,5.12
-9.9698e-03,5.08,5.04
-9.9696e-03,5.08,5.12
-9.9694e-03,5.08,5.04
-9.9693e-03,5.08,5.12
-9.9691e-03,5.08,5.04
-9.9690e-03,5.08,5.12
-9.9688e-03,5.08,5.04
-9.9686e-03,5.08,5.08
-9.9685e-03,5.08,4.92
-9.9683e-03,5.08,5.24
-9.9682e-03,5.08,4.96
-9.9680e-03,5.08,5.2
-9.9678e-03,5.08,5.04
-9.9677e-03,5.08,5.12
-9.9675e-03,5.08,5.04
-9.9674e-03,5.08,5.12
-9.9672e-03,5.08,5
-9.9670e-03,5.08,5.08
-9.9669e-03,5.08,5.04
-9.9667e-03,5.08,5.12
-9.9666e-03,5.08,5.04
-9.9664e-03,5.08,5.08
-9.9662e-03,5.08,5.04
-9.9661e-03,5.08,5.08
-9.9659e-03,5.08,5.04
-9.9658e-03,5.08,5.08
-9.9656e-03,5.08,5.04
-9.9654e-03,5.08,5.08
-9.9653e-03,5.08,5.04
-9.9651e-03,5.04,5.08
-9.9650e-03,5.04,5.04
-9.9648e-03,5.04,5.08
-9.9646e-03,5.04,5.04
-9.9645e-03,5.04,5.12
-9.9643e-03,5.04,5.04
-9.9642e-03,5.04,5.08
-9.9640e-03,5.04,5.04
-9.9638e-03,5.04,5.08
-9.9637e-03,5.04,5.04
-9.9635e-03,5.04,5.08
-9.9634e-03,5.04,5
-9.9632e-03,5.04,5.08
-9.9630e-03,5.04,5.04
-9.9629e-03,5.04,5.08
-9.9627e-03,5.04,5
-9.9626e-03,5.04,5.08
-9.9624e-03,5.04,5.04
-9.9622e-03,5.04,5.08
-9.9621e-03,5.04,5
-9.9619e-03,5.04,5.08
-9.9618e-03,5.04,5
-9.9616e-03,5.04,5.08
-9.9614e-03,5.04,5
-9.9613e-03,5.04,5.08
-9.9611e-03,5.04,5.04
-9.9610e-03,5.04,5.08
-9.9608e-03,5.04,5
-9.9606e-03,5.04,5.08
-9.9605e-03,5.04,5
-9.9603e-03,5.04,5.08
-9.9602e-03,5.04,5
-9.9600e-03,5.04,5.08
-9.9598e-03,5.04,5
-9.9597e-03,5.04,5.08
-9.9595e-03,5.04,5
-9.9594e-03,5.04,5.08
-9.9592e-03,5.04,5
-9.9590e-03,5.04,5.08
-9.9589e-03,5.04,5
-9.9587e-03,5.04,5.08
-9.9586e-03,5.04,5
-9.9584e-03,5.04,5.08
-9.9582e-03,5.04,5
-9.9581e-03,5.04,5.08
-9.9579e-03,5.04,5
-9.9578e-03,5.04,5.08
-9.9576e-03,5.04,5
-9.9574e-03,5.04,5.08
-9.9573e-03,5.04,5
-9.9571e-03,5.04,5.08
-9.9570e-03,5.04,5
-9.9568e-03,5.04,5.08
-9.9566e-03,5.04,5.04
-9.9565e-03,5.04,5.08
-9.9563e-03,5.04,5
-9.9562e-03,5.04,5.08
-9.9560e-03,5.04,5
-9.9558e-03,5.04,5.08
-9.9557e-03,5.04,5
-9.9555e-03,5.04,5.08
-9.9554e-03,5.04,5
-9.9552e-03,5.04,5.08
-9.9550e-03,5.04,5
-9.9549e-03,5.04,5.08
-9.9547e-03,5.04,5
-9.9546e-03,5.04,5.08
-9.9544e-03,5.04,5
-9.9542e-03,5.04,5.08
-9.9541e-03,5.04,5
-9.9539e-03,5.04,5.08
-9.9538e-03,5.04,5
-9.9536e-03,5.04,5.08
-9.9534e-03,5.04,5
-9.9533e-03,5.04,5.08
-9.9531e-03,5.04,5
-9.9530e-03,5.04,5.08
-9.9528e-03,5.04,5
-9.9526e-03,5.04,5.08
-9.9525e-03,5.04,5
-9.9523e-03,5.04,5.08
-9.9522e-03,5.04,5
-9.9520e-03,5.04,5.08
-9.9518e-03,5.04,5
-9.9517e-03,5.04,5.08
-9.9515e-03,5.04,5
-9.9514e-03,5.04,5.08
-9.9512e-03,5.04,5
-9.9510e-03,5.04,5.08
-9.9509e-03,5.04,5
-9.9507e-03,5.04,5.08
-9.9506e-03,5.04,5
-9.9504e-03,5.04,5.08
-9.9502e-03,5.04,5
-9.9501e-03,5.04,5.08
-9.9499e-03,5.04,5
-9.9498e-03,5.04,5.04
-9.9496e-03,5.04,5
-9.9494e-03,5.04,5.04
-9.9493e-03,5.04,5
-9.9491e-03,5.04,5.08
-9.9490e-03,5.04,5
-9.9488e-03,5.04,5.08
-9.9486e-03,5.04,5
-9.9485e-03,5.04,5.04
-9.9483e-03,5.04,5
-9.9482e-03,5.04,5.04
-9.9480e-03,5.04,5
-9.9478e-03,5.04,5.08
-9.9477e-03,5.04,5
-9.9475e-03,5.04,5.04
-9.9474e-03,5,5
-9.9472e-03,5,5.08
-9.9470e-03,5,5
-9.9469e-03,5,5.04
-9.9467e-03,5,5
-9.9466e-03,5,5.04
-9.9464e-03,5,5
-9.9462e-03,5,5.04
-9.9461e-03,5,5
-9.9459e-03,5,5.04
-9.9458e-03,5,5
-9.9456e-03,5,5.04
-9.9454e-03,5,5
-9.9453e-03,5,5.04
-9.9451e-03,5,5
-9.9450e-03,5,5.04
-9.9448e-03,5,5
-9.9446e-03,5,5.04
-9.9445e-03,5,5
-9.9443e-03,5,5.04
-9.9442e-03,5,5
-9.9440e-03,5,5.04
-9.9438e-03,5,4.96
-9.9437e-03,5,5.04
-9.9435e-03,5,5
-9.9434e-03,5.04,5.04
-9.9432e-03,5.04,5
-9.9430e-03,5.04,5.04
-9.9429e-03,5.04,5
-9.9427e-03,5.04,5.08
-9.9426e-03,5.04,5
-9.9424e-03,5.04,5.08
-9.9422e-03,5.04,5
-9.9421e-03,5.04,5.08
-9.9419e-03,5,5
-9.9418e-03,5,5.08
-9.9416e-03,5,5
-9.9414e-03,5.04,5.04
-9.9413e-03,5.04,5
-9.9411e-03,5.04,5.04
-9.9410e-03,5.04,5
-9.9408e-03,5.04,5.08
-9.9406e-03,5.04,5
-9.9405e-03,5.04,5.04
-9.9403e-03,5.04,5
-9.9402e-03,5,5.04
-9.9400e-03,5,5
-9.9398e-03,5,5.04
-9.9397e-03,5,5
-9.9395e-03,5,5.04
-9.9394e-03,5,5
-9.9392e-03,5,5.04
-9.9390e-03,5,4.96
-9.9389e-03,5,5.04
-9.9387e-03,5,5
-9.9386e-03,5,5.04
-9.9384e-03,5,4.96
-9.9382e-03,5,5.04
-9.9381e-03,5,5
-9.9379e-03,5,5.04
-9.9378e-03,5,4.96
-9.9376e-03,5,5.04
-9.9374e-03,5,4.96
-9.9373e-03,5,5.04
-9.9371e-03,5,4.96
-9.9370e-03,5,5.04
-9.9368e-03,5,4.96
-9.9366e-03,5,5.04
-9.9365e-03,5,4.84
-9.9363e-03,5,5.2
-9.9362e-03,5,4.88
-9.9360e-03,5,5.16
-9.9358e-03,5,4.96
-9.9357e-03,5,5.04
-9.9355e-03,5,4.96
-9.9354e-03,5,5.04
-9.9352e-03,5,4.96
-9.9350e-03,5,5.04
-9.9349e-03,5,4.96
-9.9347e-03,5,5.04
-9.9346e-03,5,4.96
-9.9344e-03,5,5.04
-9.9342e-03,5,4.96
-9.9341e-03,5,5.04
-9.9339e-03,5,4.96
-9.9338e-03,5,5.04
-9.9336e-03,5,4.96
-9.9334e-03,5,5.04
-9.9333e-03,5,4.96
-9.9331e-03,5,5.04
-9.9330e-03,5,4.96
-9.9328e-03,5,5.04
-9.9326e-03,5,4.96
-9.9325e-03,5,5.04
-9.9323e-03,5,4.96
-9.9322e-03,5,5.04
-9.9320e-03,5,4.96
-9.9318e-03,5,5.04
-9.9317e-03,5,4.96
-9.9315e-03,5,5
-9.9314e-03,5,4.96
-9.9312e-03,5,5
-9.9310e-03,5,4.96
-9.9309e-03,5,5.04
-9.9307e-03,5,4.96
-9.9306e-03,5,5
-9.9304e-03,5,4.96
-9.9302e-03,5,5.04
-9.9301e-03,5,4.96
-9.9299e-03,5,5.04
-9.9298e-03,5,4.96
-9.9296e-03,5,5.04
-9.9294e-03,5,4.96
-9.9293e-03,5,5
-9.9291e-03,5,4.96
-9.9290e-03,5,5
-9.9288e-03,5,4.96
-9.9286e-03,5,5
-9.9285e-03,5,4.96
-9.9283e-03,5,5
-9.9282e-03,5,4.96
-9.9280e-03,5,5
-9.9278e-03,5,4.96
-9.9277e-03,5,5.04
-9.9275e-03,5,4.96
-9.9274e-03,5,5
-9.9272e-03,5,4.96
-9.9270e-03,5,5.04
-9.9269e-03,5,4.96
-9.9267e-03,5,5
-9.9266e-03,5,4.96
-9.9264e-03,5,5.04
-9.9262e-03,5,4.96
-9.9261e-03,5,5
-9.9259e-03,5,4.96
-9.9258e-03,5,5
-9.9256e-03,5,4.96
-9.9254e-03,5,5
-9.9253e-03,5,4.96
-9.9251e-03,5,5
-9.9250e-03,5,4.96
-9.9248e-03,5,5.04
-9.9246e-03,5,4.96
-9.9245e-03,5,5
-9.9243e-03,5,4.96
-9.9242e-03,5,5
-9.9240e-03,5,4.96
-9.9238e-03,5,5.04
-9.9237e-03,5,4.96
-9.9235e-03,5,5.04
-9.9234e-03,5,4.96
-9.9232e-03,5,5
-9.9230e-03,5,4.96
-9.9229e-03,5,5.04
-9.9227e-03,5,4.96
-9.9226e-03,5,5
-9.9224e-03,5,4.96
-9.9222e-03,5,5.04
-9.9221e-03,5,4.96
-9.9219e-03,5,5
-9.9218e-03,5,4.96
-9.9216e-03,5,5.04
-9.9214e-03,5,4.96
-9.9213e-03,5,5.04
-9.9211e-03,5,4.96
-9.9210e-03,5,5.04
-9.9208e-03,5,4.96
-9.9206e-03,5,5.04
-9.9205e-03,5,4.96
-9.9203e-03,5,5.04
-9.9202e-03,5,4.96
-9.9200e-03,5,5.04
-9.9198e-03,5,4.96
-9.9197e-03,5,5.04
-9.9195e-03,5,4.96
-9.9194e-03,5,5.04
-9.9192e-03,5,4.96
-9.9190e-03,5,5.04
-9.9189e-03,5,4.96
-9.9187e-03,5,5.04
-9.9186e-03,5,4.96
-9.9184e-03,5,5.04
-9.9182e-03,5,4.96
-9.9181e-03,5,5.04
-9.9179e-03,5,4.96
-9.9178e-03,5,5.04
-9.9176e-03,5,4.96
-9.9174e-03,5,5.04
-9.9173e-03,5,4.96
-9.9171e-03,5,5.04
-9.9170e-03,5,4.96
-9.9168e-03,5,5
-9.9166e-03,5,4.96
-9.9165e-03,5,5
-9.9163e-03,5,4.96
-9.9162e-03,5,5.04
-9.9160e-03,5,4.96
-9.9158e-03,5,5.04
-9.9157e-03,5,4.96
-9.9155e-03,5,5.04
-9.9154e-03,5,4.96
-9.9152e-03,5,5.04
-9.9150e-03,5,4.96
-9.9149e-03,5,5
-9.9147e-03,5,4.96
-9.9146e-03,5,5
-9.9144e-03,5,4.96
-9.9142e-03,5,5.04
-9.9141e-03,5,4.96
-9.9139e-03,5,5
-9.9138e-03,5,4.96
-9.9136e-03,5,5.04
-9.9134e-03,5,4.96
-9.9133e-03,5,5
-9.9131e-03,5,4.96
-9.9130e-03,5,5.04
-9.9128e-03,5,4.96
-9.9126e-03,5,5.04
-9.9125e-03,5,4.96
-9.9123e-03,5,5.04
-9.9122e-03,5,4.96
-9.9120e-03,5,5.04
-9.9118e-03,5,4.96
-9.9117e-03,5,5.04
-9.9115e-03,5,4.96
-9.9114e-03,5,5.04
-9.9112e-03,5,4.96
-9.9110e-03,5,5.04
-9.9109e-03,5,4.96
-9.9107e-03,5,5.04
-9.9106e-03,5,5
-9.9104e-03,5,5.04
-9.9102e-03,5,4.96
-9.9101e-03,5,5.04
-9.9099e-03,5,5
-9.9098e-03,5,5.04
-9.9096e-03,5,5
-9.9094e-03,5,5.04
-9.9093e-03,5,4.96
-9.9091e-03,5,5.04
-9.9090e-03,5,5
-9.9088e-03,5,5.04
-9.9086e-03,5,5
-9.9085e-03,5,5.04
-9.9083e-03,5,5
-9.9082e-03,5,5.04
-9.9080e-03,5,4.96
-9.9078e-03,5,5.04
-9.9077e-03,5,5
-9.9075e-03,5,5.04
-9.9074e-03,5,5
-9.9072e-03,5,5.04
-9.9070e-03,5,4.96
-9.9069e-03,5,5.04
-9.9067e-03,5,5
-9.9066e-03,5,5.04
-9.9064e-03,5,5
-9.9062e-03,5,5.04
-9.9061e-03,5,4.96
-9.9059e-03,5,5.04
-9.9058e-03,5,4.96
-9.9056e-03,5,5.04
-9.9054e-03,5,4.96
-9.9053e-03,5,5.04
-9.9051e-03,5,5
-9.9050e-03,5,5.04
-9.9048e-03,5,5
-9.9046e-03,5,5.04
-9.9045e-03,5,4.88
-9.9043e-03,5,5.16
-9.9042e-03,5,4.92
-9.9040e-03,5,5.16
-9.9038e-03,5,5
-9.9037e-03,5,5.04
-9.9035e-03,5,4.96
-9.9034e-03,5,5.04
-9.9032e-03,5,4.96
-9.9030e-03,5,5.04
-9.9029e-03,5,5
-9.9027e-03,5,5.04
-9.9026e-03,5,4.96
-9.9024e-03,5,5.04
-9.9022e-03,5,5
-9.9021e-03,5,5.04
-9.9019e-03,5,4.96
-9.9018e-03,5,5.04
-9.9016e-03,5,5
-9.9014e-03,5,5.04
-9.9013e-03,5,4.96
-9.9011e-03,5,5.04
-9.9010e-03,5,4.96
-9.9008e-03,5,5.04
-9.9006e-03,5,5
-9.9005e-03,5,5.04
-9.9003e-03,5,4.96
-9.9002e-03,5,5.04
-9.9000e-03,5,4.96
-9.8998e-03,5,5.04
-9.8997e-03,5,5
-9.8995e-03,5,5.04
-9.8994e-03,5,5
-9.8992e-03,5,5.04
-9.8990e-03,5,5
-9.8989e-03,5,5.04
-9.8987e-03,5,5
-9.8986e-03,5,5.04
-9.8984e-03,5,5
-9.8982e-03,5,5.04
-9.8981e-03,5,5
-9.8979e-03,5,5.04
-9.8978e-03,5,4.96
-9.8976e-03,5,5.04
-9.8974e-03,5,4.96
-9.8973e-03,5,5.04
-9.8971e-03,5,4.96
-9.8970e-03,5,5.04
-9.8968e-03,5,4.96
-9.8966e-03,5,5.04
-9.8965e-03,5,4.96
-9.8963e-03,5,5.04
-9.8962e-03,5,4.96
-9.8960e-03,5,5.04
-9.8958e-03,5,4.96
-9.8957e-03,5,5.04
-9.8955e-03,5,5
-9.8954e-03,5,5.04
-9.8952e-03,5,4.96
-9.8950e-03,5,5.04
-9.8949e-03,5,4.96
-9.8947e-03,5,5.04
-9.8946e-03,5,4.96
-9.8944e-03,5,5.04
-9.8942e-03,5,4.96
-9.8941e-03,5,5.04
-9.8939e-03,5,5
-9.8938e-03,5,5.04
-9.8936e-03,5,5
-9.8934e-03,5,5.04
-9.8933e-03,5,5
-9.8931e-03,5,5.04
-9.8930e-03,5,5
-9.8928e-03,5,5.04
-9.8926e-03,5,4.96
-9.8925e-03,5,5.04
-9.8923e-03,5,4.96
-9.8922e-03,5,5.04
-9.8920e-03,5,5
-9.8918e-03,5,5.04
-9.8917e-03,5,5
-9.8915e-03,5,5.04
-9.8914e-03,5,5
-9.8912e-03,5,5.04
-9.8910e-03,5,5
-9.8909e-03,5,5.04
-9.8907e-03,5.04,5
-9.8906e-03,5.04,5.04
-9.8904e-03,5.04,5
-9.8902e-03,5.04,5.04
-9.8901e-03,5.04,5
-9.8899e-03,5.04,5.04
-9.8898e-03,5.04,5
-9.8896e-03,5.04,5.08
-9.8894e-03,5.04,5
-9.8893e-03,5.04,5.08
-9.8891e-03,5.04,5
-9.8890e-03,5.04,5.08
-9.8888e-03,5.04,5
-9.8886e-03,5.04,5.08
-9.8885e-03,5.04,5
-9.8883e-03,5.04,5.04
-9.8882e-03,5.04,5
-9.8880e-03,5.04,5.08
-9.8878e-03,5.04,5
-9.8877e-03,5.04,5.08
-9.8875e-03,5.04,5
-9.8874e-03,5.04,5.08
-9.8872e-03,5.04,5
-9.8870e-03,5.04,5.08
-9.8869e-03,5.04,5
-9.8867e-03,5.04,5.08
-9.8866e-03,5.04,5
-9.8864e-03,5.04,5.08
-9.8862e-03,5.04,5
-9.8861e-03,5.04,5.08
-9.8859e-03,5.04,5
-9.8858e-03,5.04,5.08
-9.8856e-03,5.04,5
-9.8854e-03,5.04,5.08
-9.8853e-03,5.04,5
-9.8851e-03,5.04,5.08
-9.8850e-03,5.04,5
-9.8848e-03,5.04,5.08
-9.8846e-03,5.04,5
-9.8845e-03,5.04,5.08
-9.8843e-03,5.04,5
-9.8842e-03,5.04,5.08
-9.8840e-03,5.04,5
-9.8838e-03,5.04,5.08
-9.8837e-03,5.04,5
-9.8835e-03,5.04,5.04
-9.8834e-03,5.04,5
-9.8832e-03,5.04,5.04
-9.8830e-03,5.04,5
-9.8829e-03,5.04,5.08
-9.8827e-03,5.04,5
-9.8826e-03,5.04,5.04
-9.8824e-03,5.04,5
-9.8822e-03,5.04,5.08
-9.8821e-03,5.04,5
-9.8819e-03,5.04,5.08
-9.8818e-03,5.04,5
-9.8816e-03,5.04,5.08
-9.8814e-03,5.04,5
-9.8813e-03,5.04,5.08
-9.8811e-03,5.04,5
-9.8810e-03,5.04,5.08
-9.8808e-03,5.04,5
-9.8806e-03,5.04,5.08
-9.8805e-03,5.04,5
-9.8803e-03,5.04,5.04
-9.8802e-03,5.04,5
-9.8800e-03,5.04,5.08
-9.8798e-03,5.04,5
-9.8797e-03,5.04,5.08
-9.8795e-03,5.04,5
-9.8794e-03,5.04,5.04
-9.8792e-03,5.04,5
-9.8790e-03,5.04,5.08
-9.8789e-03,5.04,5
-9.8787e-03,5.04,5.08
-9.8786e-03,5.04,5
-9.8784e-03,5.04,5.08
-9.8782e-03,5.04,5
-9.8781e-03,5.04,5.08
-9.8779e-03,5.04,5
-9.8778e-03,5.04,5.08
-9.8776e-03,5.04,5
-9.8774e-03,5.04,5.08
-9.8773e-03,5.04,5
-9.8771e-03,5.04,5.08
-9.8770e-03,5.04,5
-9.8768e-03,5.04,5.08
-9.8766e-03,5.04,5
-9.8765e-03,5.04,5.08
-9.8763e-03,5.04,5
-9.8762e-03,5.04,5.08
-9.8760e-03,5.04,5
-9.8758e-03,5.04,5.08
-9.8757e-03,5.04,5
-9.8755e-03,5.04,5.08
-9.8754e-03,5.04,5
-9.8752e-03,5.04,5.08
-9.8750e-03,5.04,5
-9.8749e-03,5.04,5.08
-9.8747e-03,5.04,5
-9.8746e-03,5.04,5.08
-9.8744e-03,5.04,5
-9.8742e-03,5.04,5.08
-9.8741e-03,5.04,5
-9.8739e-03,5.04,5.08
-9.8738e-03,5.04,5
-9.8736e-03,5.04,5.08
-9.8734e-03,5.04,5
-9.8733e-03,5.04,5.04
-9.8731e-03,5.04,5
-9.8730e-03,5.04,5.08
-9.8728e-03,5.04,5
-9.8726e-03,5.04,5.04
-9.8725e-03,5.04,4.88
-9.8723e-03,5.04,5.16
-9.8722e-03,5.04,4.84
-9.8720e-03,5.04,5.2
-9.8718e-03,5.04,5
-9.8717e-03,5,5.04
-9.8715e-03,5,5
-9.8714e-03,5,5.04
-9.8712e-03,5,4.96
-9.8710e-03,5,5.04
-9.8709e-03,5,5
-9.8707e-03,5,5.04
-9.8706e-03,5,5
-9.8704e-03,5,5.04
-9.8702e-03,5,5
-9.8701e-03,5,5.04
-9.8699e-03,5,5
-9.8698e-03,5,5.04
-9.8696e-03,5,5
-9.8694e-03,5,5.04
-9.8693e-03,5,5
-9.8691e-03,5,5.04
-9.8690e-03,5,5
-9.8688e-03,5,5.04
-9.8686e-03,5,5
-9.8685e-03,5,5.04
-9.8683e-03,5,4.96
-9.8682e-03,5,5.04
-9.8680e-03,5,5
-9.8678e-03,5,5.04
-9.8677e-03,5,5
-9.8675e-03,5,5.04
-9.8674e-03,5,4.96
-9.8672e-03,5,5.04
-9.8670e-03,5,5
-9.8669e-03,5,5.04
-9.8667e-03,5,4.96
-9.8666e-03,5,5.04
-9.8664e-03,5,5
-9.8662e-03,5,5.04
-9.8661e-03,5,5
-9.8659e-03,5,5.04
-9.8658e-03,5,5
-9.8656e-03,5,5.04
-9.8654e-03,5,4.96
-9.8653e-03,5,5.04
-9.8651e-03,5,5
-9.8650e-03,5,5.04
-9.8648e-03,5,4.96
-9.8646e-03,5,5.04
-9.8645e-03,5,4.96
-9.8643e-03,5,5.04
-9.8642e-03,5,4.96
-9.8640e-03,5,5.04
-9.8638e-03,5,5
-9.8637e-03,5,5.04
-9.8635e-03,5,5
-9.8634e-03,5,5.04
-9.8632e-03,5,5
-9.8630e-03,5,5.04
-9.8629e-03,5,4.96
-9.8627e-03,5,5.04
-9.8626e-03,5,4.96
-9.8624e-03,5,5.04
-9.8622e-03,5,4.96
-9.8621e-03,5,5.04
-9.8619e-03,5,5
-9.8618e-03,5,5.04
-9.8616e-03,5,4.96
-9.8614e-03,5,5.04
-9.8613e-03,5,4.96
-9.8611e-03,5,5.04
-9.8610e-03,5,4.96
-9.8608e-03,5,5.04
-9.8606e-03,5,4.96
-9.8605e-03,5,5.04
-9.8603e-03,5,4.96
-9.8602e-03,5,5.04
-9.8600e-03,5,4.96
-9.8598e-03,5,5.04
-9.8597e-03,5,4.96
-9.8595e-03,5,5.04
-9.8594e-03,5,4.96
-9.8592e-03,5,5.04
-9.8590e-03,5,4.96
-9.8589e-03,5,5.04
-9.8587e-03,5,5
-9.8586e-03,5,5.04
-9.8584e-03,5,4.96
-9.8582e-03,5,5.04
-9.8581e-03,5,4.96
-9.8579e-03,5,5.04
-9.8578e-03,5,4.96
-9.8576e-03,5,5.04
-9.8574e-03,5,4.96
-9.8573e-03,5,5.04
-9.8571e-03,5,5
-9.8570e-03,5,5.04
-9.8568e-03,5,5
-9.8566e-03,5,5.04
-9.8565e-03,5,5
-9.8563e-03,5,5.04
-9.8562e-03,5,5
-9.8560e-03,5,5.04
-9.8558e-03,5,4.96
-9.8557e-03,5,5.04
-9.8555e-03,5,4.96
-9.8554e-03,5,5.04
-9.8552e-03,5,4.96
-9.8550e-03,5,5.04
-9.8549e-03,5,5
-9.8547e-03,5,5.04
-9.8546e-03,5,4.96
-9.8544e-03,5,5.04
-9.8542e-03,5,4.96
-9.8541e-03,5,5.04
-9.8539e-03,5,5
-9.8538e-03,5,5.04
-9.8536e-03,5,4.96
-9.8534e-03,5,5.04
-9.8533e-03,5,4.96
-9.8531e-03,5,5.04
-9.8530e-03,5,5
-9.8528e-03,5,5.04
-9.8526e-03,5,4.96
-9.8525e-03,5,5.04
-9.8523e-03,5,5
-9.8522e-03,5,5.04
-9.8520e-03,5,4.96
-9.8518e-03,5,5.04
-9.8517e-03,5,4.96
-9.8515e-03,5,5.04
-9.8514e-03,5,4.96
-9.8512e-03,5,5.04
-9.8510e-03,5,4.96
-9.8509e-03,5,5.04
-9.8507e-03,5,5
-9.8506e-03,5,5.04
-9.8504e-03,5,4.96
-9.8502e-03,5,5.04
-9.8501e-03,5,4.96
-9.8499e-03,5,5.04
-9.8498e-03,5,4.96
-9.8496e-03,5,5.04
-9.8494e-03,5,4.96
-9.8493e-03,5,5.04
-9.8491e-03,5,4.96
-9.8490e-03,5,5.04
-9.8488e-03,5,4.96
-9.8486e-03,5,5.04
-9.8485e-03,5,4.96
-9.8483e-03,5,5.04
-9.8482e-03,5,4.96
-9.8480e-03,5,5.04
-9.8478e-03,5,4.96
-9.8477e-03,5,5.04
-9.8475e-03,5,4.96
-9.8474e-03,5,5.04
-9.8472e-03,5,4.96
-9.8470e-03,5,5.04
-9.8469e-03,5,5
-9.8467e-03,5,5.04
-9.8466e-03,5,5
-9.8464e-03,5,5.04
-9.8462e-03,5,4.96
-9.8461e-03,5,5.04
-9.8459e-03,5,5
-9.8458e-03,5,5.04
-9.8456e-03,5,5
-9.8454e-03,5,5.04
-9.8453e-03,5,5
-9.8451e-03,5,5.04
-9.8450e-03,5,5
-9.8448e-03,5,5.04
-9.8446e-03,5,5
-9.8445e-03,5,5.04
-9.8443e-03,5,4.96
-9.8442e-03,5,5.04
-9.8440e-03,5,5
-9.8438e-03,5,5.04
-9.8437e-03,5,5
-9.8435e-03,5,5.04
-9.8434e-03,5,5
-9.8432e-03,5,5.04
-9.8430e-03,5,4.96
-9.8429e-03,5,5.04
-9.8427e-03,5,4.96
-9.8426e-03,5,5.04
-9.8424e-03,5,4.96
-9.8422e-03,5,5.04
-9.8421e-03,5,4.96
-9.8419e-03,5,5.04
-9.8418e-03,5,4.96
-9.8416e-03,5,5.04
-9.8414e-03,5,4.96
-9.8413e-03,5,5.04
-9.8411e-03,5,4.96
-9.8410e-03,5,5.04
-9.8408e-03,5,4.96
-9.8406e-03,5,5.04
-9.8405e-03,5,4.84
-9.8403e-03,5,5.08
-9.8402e-03,5,4.84
-9.8400e-03,5,5.16
-9.8398e-03,5,4.96
-9.8397e-03,5,5.04
-9.8395e-03,5,4.96
